{
  "project_info": {
    "project_number": "363650313814",
    "firebase_url": "https://kazam-ebc4c.firebaseio.com",
    "project_id": "kazam-ebc4c",
    "storage_bucket": "kazam-ebc4c.appspot.com"
  },
  "client": [
    {
      "client_info": {
        "mobilesdk_app_id": "1:363650313814:android:401911fd5e9ca1ac",
        "android_client_info": {
          "package_name": "com.urbanity.android"
        }
      },
      "oauth_client": [
        {
          "client_id": "363650313814-idjj0e0c0olgkg2586eucker5u44i1cc.apps.googleusercontent.com",
          "client_type": 3
        }
      ],
      "api_key": [
        {
          "current_key": "AIzaSyCGBIeVEe5aR26jIOijzGk4One-aHARYVg"
        }
      ],
      "services": {
        "analytics_service": {
          "status": 1
        },
        "appinvite_service": {
          "status": 1,
          "other_platform_oauth_client": []
        },
        "ads_service": {
          "status": 2
        }
      }
    }
  ],
  "configuration_version": "1"
}